Ramen Rating Project
…
## tibble [2,554 x 5] (S3: tbl_df/tbl/data.frame)
##  $ Style   : Factor w/ 8 levels "","Bar","Bowl",..: 6 7 6 7 7 7 6 8 7 7 ...
##  $ Brand   : Factor w/ 355 levels "1 To 3 Noodles",..: 193 122 195 339 38 252 8 110 236 137 ...
##  $ Country : Factor w/ 38 levels "Australia","Bangladesh",..: 19 33 37 33 17 31 19 19 19 30 ...
##  $ Stars   : Named num [1:2554] 3.75 1 2.25 2.75 3.75 4.75 4 3.75 0.25 2.5 ...
##   ..- attr(*, "names")= chr [1:2554] "3.75" "1" "2.25" "2.75" ...
##  $ Review..: num [1:2554] 2580 2579 2578 2577 2576 ...

In this dataset, NA of response variable, Stars, is recorded as Unrated, which makes all of Stars variable into characters. Thus the first step is remove observations with Unrated and transform the Stars variable into numeric.

Besides, some observation is with Stars recorded as 0, which is abnormal due to the lowest rating should be 1. Thus to ensure reasonablity of the following visualization and models constructed these abnormal observations are also removed.

(2) Removement of observations with low weights

## # A tibble: 1,560 x 5
##    Style Brand          Country     Stars Review..
##    <fct> <fct>          <fct>       <dbl>    <dbl>
##  1 Cup   New Touch      Japan        3.75     2580
##  2 Pack  Just Way       Taiwan       1        2579
##  3 Cup   Nissin         USA          2.25     2578
##  4 Pack  Wei Lih        Taiwan       2.75     2577
##  5 Pack  Ching's Secret India        3.75     2576
##  6 Pack  Samyang Foods  South Korea  4.75     2575
##  7 Cup   Acecook        Japan        4        2574
##  8 Tray  Ikeda Shoku    Japan        3.75     2573
##  9 Pack  Ripe'n'Dry     Japan        0.25     2572
## 10 Pack  KOKA           Singapore    2.5      2571
## # ... with 1,550 more rows
…
##    Min. 1st Qu.  Median    Mean 3rd Qu.    Max. 
##   0.250   3.500   4.000   3.869   4.500   5.000

## # A tibble: 1,476 x 5
##    Style Brand          Country     Stars Review..
##    <fct> <fct>          <fct>       <dbl>    <dbl>
##  1 Cup   New Touch      Japan        3.75     2580
##  2 Cup   Nissin         USA          2.25     2578
##  3 Pack  Wei Lih        Taiwan       2.75     2577
##  4 Pack  Ching's Secret India        3.75     2576
##  5 Pack  Samyang Foods  South Korea  4.75     2575
##  6 Cup   Acecook        Japan        4        2574
##  7 Tray  Ikeda Shoku    Japan        3.75     2573
##  8 Pack  KOKA           Singapore    2.5      2571
##  9 Pack  Tao Kae Noi    Thailand     5        2570
## 10 Pack  Yamachan       USA          5        2569
## # ... with 1,466 more rows
…
